module gitlab.com/Dewanto-Rafli/vix-evermos-project

go 1.19

require (
	github.com/gofiber/fiber/v2 v2.41.0
	github.com/gofiber/jwt/v2 v2.2.7
	github.com/golang-jwt/jwt v3.2.2+incompatible
	github.com/gosimple/slug v1.13.1
	github.com/joho/godotenv v1.4.0
	golang.org/x/crypto v0.5.0
	gorm.io/driver/mysql v1.4.5
	gorm.io/gorm v1.24.3
)

require (
	github.com/andybalholm/brotli v1.0.4 // indirect
	github.com/go-sql-driver/mysql v1.7.0 // indirect
	github.com/golang-jwt/jwt/v4 v4.0.0 // indirect
	github.com/gosimple/unidecode v1.0.1 // indirect
	github.com/jinzhu/inflection v1.0.0 // indirect
	github.com/jinzhu/now v1.1.5 // indirect
	github.com/klauspost/compress v1.15.9 // indirect
	github.com/mattn/go-colorable v0.1.13 // indirect
	github.com/mattn/go-isatty v0.0.17 // indirect
	github.com/mattn/go-runewidth v0.0.14 // indirect
	github.com/rivo/uniseg v0.2.0 // indirect
	github.com/valyala/bytebufferpool v1.0.0 // indirect
	github.com/valyala/fasthttp v1.43.0 // indirect
	github.com/valyala/tcplisten v1.0.0 // indirect
	golang.org/x/sys v0.4.0 // indirect
)
